timeplyr - Fast Tidy Functions for Date and Time Manipulation
…
 EWR  JFK  LGA 
2489 1820 2468 

Completing gaps

In this example we can see how to complete these gaps using the time_complete function.

We start by counting the number of flights per hour and then using time_complete to fill in any gaps. It’s worth noting that by default time_complete finds the minimum and maximum time, as well as figuring out that it is an hourly sequence.

hourly_flights <- flights |>
  count(time_hour)
hourly_flights

# A tibble: 6,936 × 2
   time_hour               n
   <dttm>              <int>
 1 2013-01-01 05:00:00     6
 2 2013-01-01 06:00:00    52
 3 2013-01-01 07:00:00    49
 4 2013-01-01 08:00:00    58
 5 2013-01-01 09:00:00    56
 6 2013-01-01 10:00:00    39
 7 2013-01-01 11:00:00    37
 8 2013-01-01 12:00:00    56
 9 2013-01-01 13:00:00    54
10 2013-01-01 14:00:00    48
# ℹ 6,926 more rows
…
This is just the time variable we want to specify.

flights |> 
  time_count(time = date)

# A tibble: 365 × 2
               date     n
          <tm_intv> <int>
 1 [Jan-01, Jan-02)   842
 2 [Jan-02, Jan-03)   943
 3 [Jan-03, Jan-04)   914
 4 [Jan-04, Jan-05)   915
 5 [Jan-05, Jan-06)   720
 6 [Jan-06, Jan-07)   832
 7 [Jan-07, Jan-08)   933
 8 [Jan-08, Jan-09)   899
 9 [Jan-09, Jan-10)   902
10 [Jan-10, Jan-11)   932
# ℹ 355 more rows

These are additional variables to count which use dplyr style data-masking

flights |>
  time_count(date, across(where(is.character)))

# A tibble: 316,497 × 6
               date carrier tailnum origin dest      n
          <tm_intv> <chr>   <chr>   <chr>  <chr> <int>
 1 [Jan-01, Jan-02) 9E      N602LR  JFK    CVG       1
 2 [Jan-01, Jan-02) 9E      N604LR  JFK    MSP       1
 3 [Jan-01, Jan-02) 9E      N836AY  JFK    PHL       1
 4 [Jan-01, Jan-02) 9E      N8409N  JFK    SYR       1
 5 [Jan-01, Jan-02) 9E      N8444F  JFK    CLE       1
 6 [Jan-01, Jan-02) 9E      N8444F  JFK    IAD       1
 7 [Jan-01, Jan-02) 9E      N8515F  JFK    RDU       1
 8 [Jan-01, Jan-02) 9E      N8598B  JFK    BWI       1
 9 [Jan-01, Jan-02) 9E      N8611A  JFK    RDU       1
10 [Jan-01, Jan-02) 9E      N8631E  JFK    ROC       1
# ℹ 316,487 more rows

This argument allows us to control which time unit we will aggregate our time variable to.

flights |> 
  time_count(date, time_by = "2 weeks")

# A tibble: 27 × 2
               date     n
          <tm_intv> <int>
 1 [Jan-01, Jan-15) 12208
 2 [Jan-15, Jan-29) 12078
 3 [Jan-29, Feb-12) 12173
 4 [Feb-12, Feb-26) 12649
 5 [Feb-26, Mar-12) 13009
 6 [Mar-12, Mar-26) 13100
 7 [Mar-26, Apr-09) 13145
 8 [Apr-09, Apr-23) 13239
 9 [Apr-23, May-07) 13080
10 [May-07, May-21) 13019
# ℹ 17 more rows
…
Time series

We can easily convert time series to a (long) tibble

eu_stock <- EuStockMarkets |>
  ts_as_tibble()
eu_stock

# A tibble: 7,440 × 3
   group  time value
   <chr> <dbl> <dbl>
 1 DAX   1991. 1629.
 2 DAX   1992. 1614.
 3 DAX   1992. 1607.
 4 DAX   1992. 1621.
 5 DAX   1992. 1618.
 6 DAX   1992. 1611.
 7 DAX   1992. 1631.
 8 DAX   1992. 1640.
 9 DAX   1992. 1635.
10 DAX   1992. 1646.
# ℹ 7,430 more rows
…
flights |> 
    fcount(across(where(is_time)))

# A tibble: 6,936 × 3
   time_hour           date           n
   <dttm>              <date>     <int>
 1 2013-01-01 05:00:00 2013-01-01     6
 2 2013-01-01 06:00:00 2013-01-01    52
 3 2013-01-01 07:00:00 2013-01-01    49
 4 2013-01-01 08:00:00 2013-01-01    58
 5 2013-01-01 09:00:00 2013-01-01    56
 6 2013-01-01 10:00:00 2013-01-01    39
 7 2013-01-01 11:00:00 2013-01-01    37
 8 2013-01-01 12:00:00 2013-01-01    56
 9 2013-01-01 13:00:00 2013-01-01    54
10 2013-01-01 14:00:00 2013-01-01    48
# ℹ 6,926 more rows
flights |> 
  fcount(.cols = "origin", order = FALSE)

# A tibble: 3 × 2
  origin      n
  <chr>   <int>
1 EWR    120835
2 LGA    104662
3 JFK    111279

# 1st row of each destination
flights |> 
  fslice(1, .by = dest)

# A tibble: 105 × 20
    year month   day dep_time sched_dep_time dep_delay arr_time sched_arr_time
   <int> <int> <int>    <int>          <int>     <dbl>    <int>          <int>
 1  2013    10     1     1955           2001        -6     2213           2248
 2  2013    10     1     1149           1159       -10     1245           1259
 3  2013     1     1     1315           1317        -2     1413           1423
 4  2013     7     6     1629           1615        14     1954           1953
 5  2013     1     1      554            600        -6      812            837
 6  2013     1     1      905            905         0     1309           1229
 7  2013     1     1      946            959       -13     1146           1202
 8  2013     1     1     1318           1322        -4     1358           1416
 9  2013    10     1     1338           1105       153     1446           1245
10  2013     1     2     2044           2005        39     2229           2158
# ℹ 95 more rows
# ℹ 12 more variables: arr_delay <dbl>, carrier <chr>, flight <int>,
#   tailnum <chr>, origin <chr>, dest <chr>, air_time <dbl>, distance <dbl>,
#   hour <dbl>, minute <dbl>, time_hour <dttm>, date <date>

flights |> 
  fslice_head(n = 1, .by = dest)

# A tibble: 105 × 20
    year month   day dep_time sched_dep_time dep_delay arr_time sched_arr_time
   <int> <int> <int>    <int>          <int>     <dbl>    <int>          <int>
 1  2013    10     1     1955           2001        -6     2213           2248
 2  2013    10     1     1149           1159       -10     1245           1259
 3  2013     1     1     1315           1317        -2     1413           1423
 4  2013     7     6     1629           1615        14     1954           1953
 5  2013     1     1      554            600        -6      812            837
 6  2013     1     1      905            905         0     1309           1229
 7  2013     1     1      946            959       -13     1146           1202
 8  2013     1     1     1318           1322        -4     1358           1416
 9  2013    10     1     1338           1105       153     1446           1245
10  2013     1     2     2044           2005        39     2229           2158
# ℹ 95 more rows
# ℹ 12 more variables: arr_delay <dbl>, carrier <chr>, flight <int>,
#   tailnum <chr>, origin <chr>, dest <chr>, air_time <dbl>, distance <dbl>,
#   hour <dbl>, minute <dbl>, time_hour <dttm>, date <date>

# Last row of each destination
flights |> 
  fslice_tail(n = 1, .by = dest)

# A tibble: 105 × 20
    year month   day dep_time sched_dep_time dep_delay arr_time sched_arr_time
   <int> <int> <int>    <int>          <int>     <dbl>    <int>          <int>
 1  2013     9    30     1959           2001        -2     2209           2248
 2  2013     9    30     1156           1159        -3     1253           1259
 3  2013     9    24     2151           2159        -8     2240           2303
 4  2013     8    24     1633           1625         8     1959           2003
 5  2013     9    30     2053           1815       158     2310           2054
 6  2013     9    30     2052           2054        -2     2306           2358
 7  2013     9    30     1641           1638         3     1833           1829
 8  2013     9    28      741            738         3      823            835
 9  2013     9    30     2203           2205        -2     2339           2331
10  2013     9    30     1939           1950       -11     2112           2141
# ℹ 95 more rows
# ℹ 12 more variables: arr_delay <dbl>, carrier <chr>, flight <int>,
#   tailnum <chr>, origin <chr>, dest <chr>, air_time <dbl>, distance <dbl>,
#   hour <dbl>, minute <dbl>, time_hour <dttm>, date <date>

# Random 10% of flights by origin airport
flights |> 
  fgroup_by(origin, order = FALSE) |> 
  fslice_sample(prop = 0.1)

# A tibble: 33,676 × 20
# Groups:   origin [3]
    year month   day dep_time sched_dep_time dep_delay arr_time sched_arr_time
   <int> <int> <int>    <int>          <int>     <dbl>    <int>          <int>
 1  2013     8    28     1818           1805        13     2013           2033
 2  2013     2     3     2221           2159        22     2345           2315
 3  2013    10     3     1159           1200        -1     1259           1315
 4  2013     5    15      620            629        -9      812            825
 5  2013     9    19     1942           1945        -3     2128           2156
 6  2013     4    26     2106           2000        66       13           2259
 7  2013     2     9     1856           1859        -3     2034           2104
 8  2013     3    16     2201           2155         6       43             48
 9  2013    11     1     1832           1742        50     2045           1940
10  2013     6     8     1014            959        15     1223           1207
# ℹ 33,666 more rows
# ℹ 12 more variables: arr_delay <dbl>, carrier <chr>, flight <int>,
#   tailnum <chr>, origin <chr>, dest <chr>, air_time <dbl>, distance <dbl>,
#   hour <dbl>, minute <dbl>, time_hour <dttm>, date <date>
…
flights |> 
  duplicate_rows() # No duplicate rows

# A tibble: 0 × 20
# ℹ 20 variables: year <int>, month <int>, day <int>, dep_time <int>,
#   sched_dep_time <int>, dep_delay <dbl>, arr_time <int>,
#   sched_arr_time <int>, arr_delay <dbl>, carrier <chr>, flight <int>,
#   tailnum <chr>, origin <chr>, dest <chr>, air_time <dbl>, distance <dbl>,
#   hour <dbl>, minute <dbl>, time_hour <dttm>, date <date>

flights |> 
  duplicate_rows(origin, dest)

# A tibble: 336,552 × 2
   origin dest 
   <chr>  <chr>
 1 LGA    ATL  
 2 EWR    MIA  
 3 EWR    ORD  
 4 LGA    IAH  
 5 LGA    MSP  
 6 JFK    SJU  
 7 LGA    ORD  
 8 LGA    DFW  
 9 JFK    BOS  
10 EWR    PBI  
# ℹ 336,542 more rows

flights |> 
  duplicate_rows(origin, dest, sort = TRUE)

# A tibble: 336,552 × 2
   origin dest 
   <chr>  <chr>
 1 EWR    ALB  
 2 EWR    ALB  
 3 EWR    ALB  
 4 EWR    ALB  
 5 EWR    ALB  
 6 EWR    ALB  
 7 EWR    ALB  
 8 EWR    ALB  
 9 EWR    ALB  
10 EWR    ALB  
# ℹ 336,542 more rows
…
